[gd_scene load_steps=3 format=2]

[ext_resource path="res://MeshGenTest.cs" type="Script" id=1]
[ext_resource path="res://Textures/Blocks/Dirt/RockyDirt.tres" type="Material" id=2]

[node name="Chunk" type="Spatial"]
script = ExtResource( 1 )
BlockSize = 0.5

[node name="MeshInstance" type="MeshInstance" parent="."]
material_override = ExtResource( 2 )
generate_lightmap = false

[node name="GIProbe" type="GIProbe" parent="."]
visible = false
subdiv = 0
